…
~~~
test_results_1
## Try also
## View(test_results_1)
## head(test_results_1)
~~~
{: .language-r}



~~~
# A tibble: 88 x 74
      ID names country admin_date          q1_list_mi q2_list_det
   <dbl> <chr> <chr>   <dttm>                   <dbl>       <dbl>
 1   635 JUDr… china   1960-12-25 22:02:34          1           1
 2   636 pan … china   1985-10-07 21:18:00          0           1
 3   637 Nadě… china   1987-12-22 17:04:22          1           0
 4   638 Mári… china   1983-10-31 10:23:45          0           1
 5   639 MUDr… china   1930-12-28 11:00:55          1           1
 6   640 Anež… china   1978-08-16 01:04:50          1           0
 7   641 Magd… china   2011-01-12 04:11:12          0           1
 8   642 Alžb… china   1977-11-19 01:12:51          0           0
 9   643 Lubo… china   2012-07-30 10:15:54          0           0
10   644 Sára… china   1963-05-19 22:58:51          0           1
# … with 78 more rows, and 68 more variables: q3_list_det <dbl>,
#   q4_list_det <dbl>, q5_list_det <dbl>, q6_list_det <dbl>,
#   q7_list_det <dbl>, q8_list_det <dbl>, q9_list_det <dbl>,
#   q10_list_mi <dbl>, q11_list_det <dbl>, q12_list_mi <dbl>,
#   q13_list_prag <dbl>, q14_list_det <dbl>, q15_list_det <dbl>,
#   q16_list_det <dbl>, q17_list_inf <dbl>, q18_list_inf <dbl>,
#   q19_list_det <dbl>, q20_list_mi <dbl>, q21_list_det <dbl>,
#   q22_list_prag <dbl>, q23_list_mi <dbl>, q24_list_det <dbl>,
#   q25_list_prag <dbl>, q26_list_det_an <dbl>, q27_list_det_an <dbl>,
…
~~~
## first column of the data frame (as a vector)
test_results_1[, 1]
~~~
{: .language-r}



~~~
# A tibble: 88 x 1
      ID
   <dbl>
 1   635
 2   636
 3   637
 4   638
 5   639
 6   640
 7   641
 8   642
 9   643
10   644
# … with 78 more rows
~~~
{: .output}



~~~
## first column of the data frame (as a data.frame)
test_results_1[1]
~~~
{: .language-r}



~~~
# A tibble: 88 x 1
      ID
   <dbl>
 1   635
 2   636
 3   637
 4   638
 5   639
 6   640
 7   641
 8   642
 9   643
10   644
# … with 78 more rows
…
