…
ctt_items
~~~
{: .language-r}



~~~
# A tibble: 70 x 8
   question_info question skill objective anchor_status     n
   <chr>         <chr>    <chr> <chr>     <chr>         <dbl>
 1 q1_list_mi    q1       list  mi        <NA>             88
 2 q2_list_det   q2       list  det       <NA>             88
 3 q3_list_det   q3       list  det       <NA>             88
 4 q4_list_det   q4       list  det       <NA>             88
 5 q5_list_det   q5       list  det       <NA>             88
 6 q6_list_det   q6       list  det       <NA>             88
 7 q7_list_det   q7       list  det       <NA>             88
 8 q8_list_det   q8       list  det       <NA>             88
 9 q9_list_det   q9       list  det       <NA>             88
10 q10_list_mi   q10      list  mi        <NA>             88
# … with 60 more rows, and 2 more variables: discrimination <dbl>,
#   difficulty <dbl>
…
